[
{
    "pk": 1, 
    "model": "university.place", 
    "fields": {
        "last_update": "2013-05-22T17:32:00", 
        "name": "Zagreb", 
        "zip_code": 10000
    }
},
{
    "pk": 2, 
    "model": "university.place", 
    "fields": {
        "last_update": "2013-05-22T22:05:08.550", 
        "name": "Split", 
        "zip_code": 21000
    }
},
{
    "pk": 1, 
    "model": "university.university", 
    "fields": {
        "name": "Sveu\u010dili\u0161te u Zagrebu", 
        "last_update": "2013-05-22T17:32:00"
    }
},
{
    "pk": 1, 
    "model": "university.college", 
    "fields": {
        "university": 1, 
        "last_update": "2013-05-23T18:03:02.137", 
        "place": 1, 
        "name": "Fakultet Elektrotehnike i ra\u010dunarstva", 
        "address": "Unska 3"
    }
},
{
    "pk": 1, 
    "model": "university.course", 
    "fields": {
        "description": "Baze podataka su osnovni kolegij iz podru\u010dja baza podataka kojemu je cilj upoznati studente sa sustavima za upravljanje bazama podataka, relacijskim modelom i relacijskim bazama podataka. Izu\u010dava se na\u010din oblikovanja relacijskih baza podataka i oblikovanje modela entiteti-veze, relacijska algebra, upitni jezik SQL i osnove za\u0161tite baza podataka.", 
        "last_update": "2013-05-22T17:33:00", 
        "pass_threshold": "50.00", 
        "college": 1, 
        "slug": "baze", 
        "name": "Baze podataka"
    }
},
{
    "pk": 2, 
    "model": "university.course", 
    "fields": {
        "description": null, 
        "last_update": "2013-05-22T21:59:10.955", 
        "pass_threshold": "50.00", 
        "college": 1, 
        "slug": "programiranje", 
        "name": "Programiranje i programsko in\u017eenjerstvo"
    }
},
{
    "pk": 6, 
    "model": "university.course", 
    "fields": {
        "description": null, 
        "last_update": "2013-05-26T18:33:35.023", 
        "pass_threshold": "50.00", 
        "college": 1, 
        "slug": "signali-sustavi", 
        "name": "Signali i sustavi"
    }
},
{
    "pk": 7, 
    "model": "university.course", 
    "fields": {
        "description": null, 
        "last_update": "2013-06-02T15:42:24.571", 
        "pass_threshold": "50.00", 
        "college": 1, 
        "slug": "razvoj", 
        "name": "Razvoj informacijskih sustava"
    }
},
{
    "pk": 8, 
    "model": "university.course", 
    "fields": {
        "description": null, 
        "last_update": "2013-06-02T15:42:45.743", 
        "pass_threshold": "50.00", 
        "college": 1, 
        "slug": "objobl", 
        "name": "Objektno oblikovanje"
    }
},
{
    "pk": 9, 
    "model": "university.course", 
    "fields": {
        "description": "", 
        "last_update": "2013-07-02T15:23:52.645", 
        "pass_threshold": "50.00", 
        "college": 1, 
        "slug": "dipl-rad", 
        "name": "Diplomski rad"
    }
},
{
    "pk": 1, 
    "model": "university.employee", 
    "fields": {
        "first_name": "Mirta", 
        "last_name": "Baranovi\u0107", 
        "title": "mr.sc.", 
        "last_update": "2013-07-02T15:57:15.671", 
        "employee_type": "P", 
        "email": "mirta.baranovic@fer.hr"
    }
},
{
    "pk": 1, 
    "model": "university.courseemployee", 
    "fields": {
        "employee": 1, 
        "course": 1, 
        "last_update": "2013-05-22T21:34:03.758"
    }
}
]
